[
    {
        "packages": [            
            {
                "name": "python3",                
                "upgradable": "True"                
            },
            {
                "name": "virtualbox",                
                "version": "6.0.18",
                "pinned": "True"
            },
            {
                "name": "vagrant",                
                "version": "2.2.7",
                "pinned": "True"
            },
            {
                "name": "curl",
                "installArguments": "--force --no-progress",                
                "upgradable": "True",
                "upgradeArguments": ""
            },
            {
                "name": "grep",
                "upgradable": "True"                
            },
            {
                "name": "git-fork",
                "upgradable": "True"                
            }


        ]

    }
]